…
sanarrow <- read_csv(file = "all_datasets/fresh/zsanarrow.csv")
salong = sanarrow %>% pivot_longer(cols = c('Coal', 'Hydro', 'Nuclear', 'Solar', 'Wind'),
                                  names_to = 'Source',
                                  values_drop_na = TRUE,
                                  values_to = 'Units')
tibble(salong)

# A tibble: 171 × 3
   Year Source Units
  <dbl> <chr>  <dbl>
1  1965 Hydro  0.037
2  1966 Hydro  0.036
3  1967 Hydro  0.026
4  1968 Hydro  0.024
5  1969 Hydro  0.021
6  1970 Hydro  0.025
7  1971 Hydro  0.112
8  1972 Hydro  0.834
9  1973 Hydro  0.985
10  1974 Hydro  1.13 
# … with 161 more rows
# ℹ Use `print(n = ...)` to see more rows
…
Taking all the figures shown in these datasets to be accurate, I was surprised not only by the amounts, but also by the sequence the sources were introduced.

The last dataset I want to explore and present in RStudio (for now) is the latest one from Eskom that shows hourly readings since 2018. What nice about this is that it only looks at renewable energy
and it introduces smaller categories that can be explored later.

This dataset is also a great opportunity to use animated graphs to track each energy type throughout the day.

> tibble(eskom_re_hourly)

# A tibble: 43,824 × 11
   `Date Time Hour Beginning`  Wind      PV    CSP `Other RE` `Total RE` `Wind Installed Capacity` `PV Installed Capacity` `CSP Installed Capacity` `Other RE Installed Capacity` Total RE Installed Capa…¹
   <chr>                      <dbl>   <dbl>  <dbl>      <dbl>      <dbl>                     <dbl>                   <dbl>                    <dbl>                         <dbl>                     <dbl>
 1 2018-04-01 12:00:00 AM      455.    0    17.6         12.5       485.                     2078.                   1474.                      300                          21.8                     3874.
 2 2018-04-01 01:00:00 AM      393.    0    39.1         12.4       444.                     2078.                   1474.                      300                          21.8                     3874.
 3 2018-04-01 02:00:00 AM      337.    0    39.2         12.1       389.                     2078.                   1474.                      300                          21.8                     3874.
 4 2018-04-01 03:00:00 AM      297.    0    38.9         12.3       348.                     2078.                   1474.                      300                          21.8                     3874.
 5 2018-04-01 04:00:00 AM      310.    0    25.0         12.5       347.                     2078.                   1474.                      300                          21.8                     3874.
 6 2018-04-01 05:00:00 AM      345.    0     0           12.1       357.                     2078.                   1474.                      300                          21.8                     3874.
 7 2018-04-01 06:00:00 AM      335.    8.85  0           12.1       356.                     2078.                   1474.                      300                          21.8                     3874.
 8 2018-04-01 07:00:00 AM      365.  289.    0.257       11.9       666.                     2078.                   1474.                      300                          21.8                     3874.
 9 2018-04-01 08:00:00 AM      326.  757.   42.1         11.8      1137.                     2078.                   1474.                      300                          21.8                     3874.
10 2018-04-01 09:00:00 AM      298. 1023.   98.6         12.4      1432.                     2078.                   1474.                      300                          21.8                     3874.
# … with 43,814 more rows, and abbreviated variable name ¹​`Total RE Installed Capacity`
…
zaregennarrow <- read_csv(file = "all_datasets/fresh/zaregennarrow.csv")
zaregenlong = zaregennarrow %>% pivot_longer(cols = c('Wind', 'PV', 'CSP', 'Other RE'),
                                   names_to = 'Source',
                                   values_drop_na = TRUE,
                                   values_to = 'MegaWatts')

zaregenlong

Managed to pull the result I wanted by using the same fix from before - editing the original dataset, cleaning externally and importing the narrow format to be converted to long.

> zaregenlong
# A tibble: 157,920 × 3
   Date                   Source   MegaWatts
   <chr>                  <chr>        <dbl>
 1 2018-04-01 12:00:00 AM Wind         455. 
 2 2018-04-01 12:00:00 AM PV             0  
 3 2018-04-01 12:00:00 AM CSP           17.6
 4 2018-04-01 12:00:00 AM Other RE      12.5
 5 2018-04-01 01:00:00 AM Wind         393. 
 6 2018-04-01 01:00:00 AM PV             0  
 7 2018-04-01 01:00:00 AM CSP           39.1
 8 2018-04-01 01:00:00 AM Other RE      12.4
 9 2018-04-01 02:00:00 AM Wind         337. 
10 2018-04-01 02:00:00 AM PV             0  
# … with 157,910 more rows
…
